TASK com.chotguy.chotguytweets.sandbox id=163
  ACTIVITY com.chotguy.chotguytweets.sandbox/com.tweetlanes.android.core.view.TwitterAuthActivity 17992a11 pid=11538
    Local Activity 37e2e989 State:
      mResumed=true mStopped=false mFinished=false
      mLoadersStarted=true
      mChangingConfigurations=false
      mCurrentConfig={1.0 310mcc260mnc en_US ?layoutDir sw600dp w600dp h888dp 213dpi lrg port finger qwerty/v/v dpad/v s.6}
    FragmentManager misc state:
      mActivity=com.tweetlanes.android.core.view.TwitterAuthActivity@37e2e989
      mContainer=android.app.Activity$1@17bb5d8e
      mCurState=5 mStateSaved=false mDestroyed=false
    ViewRoot:
      mAdded=true mRemoved=false
      mConsumeBatchedInputScheduled=false
      mConsumeBatchedInputImmediatelyScheduled=false
      mPendingInputEventCount=0
      mProcessInputEventsScheduled=false
      mTraversalScheduled=false
      android.view.ViewRootImpl$NativePreImeInputStage: mQueueLength=0
      android.view.ViewRootImpl$ImeInputStage: mQueueLength=0
      android.view.ViewRootImpl$NativePostImeInputStage: mQueueLength=0
    Choreographer:
      mFrameScheduled=false
      mLastFrameTime=38766465 (24400 ms ago)
    View Hierarchy:
      com.android.internal.policy.impl.PhoneWindow$DecorView{1b1c49af V.E..... R....... 0,0-800,1216}
        com.android.internal.widget.ActionBarOverlayLayout{15d8e1bc V.ED.... ........ 0,0-800,1216 #1020378 android:id/decor_content_parent}
          android.widget.FrameLayout{35879545 V.E..... ........ 0,108-800,1216 #1020002 android:id/content}
            android.widget.LinearLayout{1293c49a V.E..... ........ 0,0-800,1108}
              android.webkit.WebView{17edd1cb VFEDHVC. ........ 0,0-800,1108 #7f0b0084 app:id/twitter_auth_signin_webview}
          com.android.internal.widget.ActionBarContainer{34305da8 V.ED.... ........ 0,33-800,108 #1020379 android:id/action_bar_container}
            com.android.internal.widget.ActionBarView{d1140c1 V.E..... ........ 0,0-800,75 #102037a android:id/action_bar}
              android.widget.LinearLayout{28599066 V.....C. ........ 11,0-376,75}
                com.android.internal.widget.ActionBarView$HomeView{d05bfa7 V.E..... ........ 0,0-75,75}
                  android.widget.ImageView{2e01ac54 G.ED.... ......I. 0,0-0,0 #102003b android:id/up}
                  android.widget.ImageView{363027fd V.ED.... ........ 5,5-69,69 #102002c android:id/home}
                android.widget.LinearLayout{295e4cf2 V.E..... ........ 75,21-365,54}
                  android.widget.TextView{dc4af43 V.ED.... ........ 0,0-279,33 #10202b6 android:id/action_bar_title}
                  android.widget.TextView{1af739c0 G.ED.... ......I. 0,0-0,0 #10202b7 android:id/action_bar_subtitle}
              android.widget.ActionMenuView{395c46f9 V.ED.... ......ID 800,0-800,75}
            com.android.internal.widget.ActionBarContextView{2780463e G.E..... ......ID 0,0-0,0 #102037b android:id/action_context_bar}
          com.android.internal.widget.ActionBarContainer{38f8fc9f G.ED.... ......ID 0,0-0,0 #102037c android:id/split_action_bar}
    Looper (main, tid 1) {2beb32bf}
      Message 0: { when=+18s468ms what=2 target=com.android.org.chromium.base.SystemMessageHandler }
      (Total messages: 1, idling=false, quitting=false)

  ACTIVITY com.chotguy.chotguytweets.sandbox/com.tweetlanes.android.core.view.NewAccountActivity 16104720 pid=11538
    Local Activity 305e77e2 State:
      mResumed=false mStopped=true mFinished=false
      mLoadersStarted=false
      mChangingConfigurations=false
      mCurrentConfig={1.0 310mcc260mnc en_US ?layoutDir sw600dp w600dp h888dp 213dpi lrg port finger qwerty/v/v dpad/v s.6}
    FragmentManager misc state:
      mActivity=com.tweetlanes.android.core.view.NewAccountActivity@305e77e2
      mContainer=android.app.Activity$1@20f631ec
      mCurState=3 mStateSaved=true mDestroyed=false
    ViewRoot:
      mAdded=true mRemoved=false
      mConsumeBatchedInputScheduled=false
      mConsumeBatchedInputImmediatelyScheduled=false
      mPendingInputEventCount=0
      mProcessInputEventsScheduled=false
      mTraversalScheduled=false
      android.view.ViewRootImpl$NativePreImeInputStage: mQueueLength=0
      android.view.ViewRootImpl$ImeInputStage: mQueueLength=0
      android.view.ViewRootImpl$NativePostImeInputStage: mQueueLength=0
    Choreographer:
      mFrameScheduled=false
      mLastFrameTime=38766465 (24403 ms ago)
    View Hierarchy:
      com.android.internal.policy.impl.PhoneWindow$DecorView{149159b5 I.E..... R....... 0,0-800,1216}
        android.widget.LinearLayout{2236884a V.E..... ........ 0,0-800,1216}
          android.view.ViewStub{21fac3bb G.E..... ......I. 0,0-0,0 #1020373}
          android.widget.FrameLayout{3d0a80d8 V.E..... ........ 0,33-800,1216 #1020002 android:id/content}
    Looper (main, tid 1) {2beb32bf}
      Message 0: { when=+18s465ms what=2 target=com.android.org.chromium.base.SystemMessageHandler }
      (Total messages: 1, idling=false, quitting=false)

  ACTIVITY com.chotguy.chotguytweets.sandbox/com.tweetlanes.android.core.view.NewAccountActivity 3408bbdd pid=(not running)

  ACTIVITY com.chotguy.chotguytweets.sandbox/com.tweetlanes.android.core.view.BootActivity 1fe50d25 pid=11538
    Local Activity 16653e7 State:
      mResumed=false mStopped=true mFinished=false
      mLoadersStarted=false
      mChangingConfigurations=false
      mCurrentConfig={1.0 310mcc260mnc en_US ?layoutDir sw600dp w600dp h888dp 213dpi lrg port finger qwerty/v/v dpad/v s.6}
    FragmentManager misc state:
      mActivity=com.tweetlanes.android.core.view.BootActivity@16653e7
      mContainer=android.app.Activity$1@2fcadc31
      mCurState=3 mStateSaved=true mDestroyed=false
    ViewRoot:
      mAdded=true mRemoved=false
      mConsumeBatchedInputScheduled=false
      mConsumeBatchedInputImmediatelyScheduled=false
      mPendingInputEventCount=0
      mProcessInputEventsScheduled=false
      mTraversalScheduled=false
      android.view.ViewRootImpl$NativePreImeInputStage: mQueueLength=0
      android.view.ViewRootImpl$ImeInputStage: mQueueLength=0
      android.view.ViewRootImpl$NativePostImeInputStage: mQueueLength=0
    Choreographer:
      mFrameScheduled=false
      mLastFrameTime=38766465 (24405 ms ago)
    View Hierarchy:
      com.android.internal.policy.impl.PhoneWindow$DecorView{275cdf16 I.E..... R....... 0,0-800,1216}
        com.android.internal.widget.ActionBarOverlayLayout{2f87e097 V.ED.... ........ 0,0-800,1216 #1020378 android:id/decor_content_parent}
          android.widget.FrameLayout{2f12d284 V.E..... ........ 0,108-800,1216 #1020002 android:id/content}
          com.android.internal.widget.ActionBarContainer{1d400a6d V.ED.... ........ 0,33-800,108 #1020379 android:id/action_bar_container}
            com.android.internal.widget.ActionBarView{34bfd6a2 V.E..... ........ 0,0-800,75 #102037a android:id/action_bar}
              android.widget.LinearLayout{c5fef33 V.....C. ........ 11,0-262,75}
                com.android.internal.widget.ActionBarView$HomeView{342c92f0 V.E..... ........ 0,0-75,75}
                  android.widget.ImageView{215fe069 G.ED.... ......I. 0,0-0,0 #102003b android:id/up}
                  android.widget.ImageView{2668baee V.ED.... ........ 5,5-69,69 #102002c android:id/home}
                android.widget.LinearLayout{5a04b8f V.E..... ........ 75,21-251,54}
                  android.widget.TextView{3bdfee1c V.ED.... ........ 0,0-165,33 #10202b6 android:id/action_bar_title}
                  android.widget.TextView{3e8d1a25 G.ED.... ......I. 0,0-0,0 #10202b7 android:id/action_bar_subtitle}
              android.widget.ActionMenuView{3da997fa V.ED.... ......ID 800,0-800,75}
            com.android.internal.widget.ActionBarContextView{32e011ab G.E..... ......ID 0,0-0,0 #102037b android:id/action_context_bar}
          com.android.internal.widget.ActionBarContainer{40bd008 G.ED.... ......ID 0,0-0,0 #102037c android:id/split_action_bar}
    Looper (main, tid 1) {2beb32bf}
      Message 0: { when=+18s463ms what=2 target=com.android.org.chromium.base.SystemMessageHandler }
      (Total messages: 1, idling=false, quitting=false)
